a)
    if(x < 10) {
        if(y > 10) { 
            std::cout << "*****" << std::endl; 
        } else { 
            std::cout << "#####" << std::endl; 
        }
    }
    std::cout << "$$$$$" << std::endl;
       
        x = 9;      *****
        y = 11;     $$$$$
        
        x = 11;      $$$$$
        y = 9;
           
b)
    if(x < 10) { 
        if(y > 10) { 
            std::cout << "*****" << std::endl; 
        }
    } else { 
        std::cout << "#####" << std::endl;   
        std::cout << "$$$$$" << std::endl; 
    } 
    
    x = 9;           *****
    y = 11;
    
    x = 11;          #####
    y = 9;           $$$$$
       
    
               
