A)

int counts[10] = {0};


B) 

int bonus[15];

for (int counter = 0; counter < 15; ++counter) {
    ++bonus[counter];
}


C)

double monthlyTemperatures[12];

for (int counter = 0; counter < 12; ++counter) {
    std::cin >> monthlyTemperatures[counter];
}


D)

int bestScores[5] = {99, 101, 103, 104, 111};

for (int counter = 0; counter < 5; ++counter) {
    std::cout << bestScores[counter] << std::endl;
} 
