а) х = fabs(7.5)  /// x = 7.500000 
b) x = floor(7.5) /// x = 7
c) х = fabs(0.0) /// x = 0.000000
d) x = ceil(0.0) /// x = 0
e) x = fabs(-6.4) /// x = 6.400000
f) x = ceil(-6.4) /// x = -6
g) x = ceil(-fabs( -8 + floor ( -5.5 ) ) ) /// x = -14 

