a) We must give array size 6 because after inputting is added "\0" symbol,

b) std::cout << a[0] << " " << a[1] << " " << a[2] << std::endl;    

c) in this case must be 3 elements in array insted of 4,

d) correct form: d[1][9] = 2.345
