a) x = 7 + 3 * 6 / 2 -1 = 7 + 18/2 -1 = 7 + 9 - 1 = 16 - 1 = 15
b) x = 2 % 2 + 2 * 2  - 2 / 2 = 0 + 2 * 2 - 2 / 2 = 0 + 4 - 2 / 2 = 
     = 0 + 4 - 1 = 4 - 1 = 3
c) x = ( 3 * 9 * ( 3 + ( 9 * 3 / ( 3 ) ) ) ) = 
     = ( 3 * 9 * ( 3 + ( 9 * 3 / 3 ) ) ) = ( 3 * 9 * ( 3 + ( 27 / 3 ) ) ) = 
     = ( 3 * 9 * ( 3 + 9 ) ) = ( 3 * 9 * 12 ) = ( 27 * 12 ) = 324
