a) False. need not name of aray and index.
b) True.
c) False. Not this way p [100]; other this way int p[100];
d) False. int a[x] = { 0 }; All elements will be 0, Don't need no one " for() ".
e) True.
